{
  "output_prefix": "genome_coverage/chemotype_hap2",
  "indexes": ["chemotype-indexes/type-1-index.tar", "chemotype-indexes/type-2-index.tar", "chemotype-indexes/type-3-index.tar", "chemotype-indexes/type-4-index.tar", "chemotype-indexes/type-5-index.tar"],
  "groups": ["Type 1", "Type 2", "Type 3", "Type 4", "Type 5"],
  "target_genome": "ERBxHO40_23_Hap2_Dovetail.fasta.gz",
  "legend_title": "Chemotype",
  "chrom_sizes": "config/ERBxHO40_23_Hap2_Dovetail.chrom.sizes",
  "color_palette": ["#f77189", "#ae9d31", "#33b07a", "#38a9c5", "#cc7af4"],
  "threads": 4
}