{
  "output_prefix": "scaffold_v1_hap1",
  "indexes": ["ERB-index.tar", "HO40-index.tar"],
  "groups": ["ERB", "HO40"],
  "target_genome": "ERBxHO40_23.combined.v2.hic.hap1.p_ctg.ragtag_Hap2_Dovetail.chr_only.fasta.gz",
  "chrom_sizes": "config/ERBxHO40_23.combined.v2.hic.hap1.p_ctg.ragtag_Hap2_Dovetail.chr_only.chrom.sizes"
}
